{
  "sql": {
    "GL702V": "karkinos:AQDUEJdbHmwAhmN2EAuhmW19X2G7PdKXZdfKrrOXtbA2Vk7bS6DhC@tcp(127.0.0.1:3306)/?maxAllowedPacket=0",
    "yonneh.ga": "karkinos:AQDUEJdbHmwAhmN2EAuhmW19X2G7PdKXZdfKrrOXtbA2Vk7bS6DhC@tcp(127.0.0.1:3306)/?maxAllowedPacket=0",
    "default": "karkinos:AQDUEJdbHmwAhmN2EAuhmW19X2G7PdKXZdfKrrOXtbA2Vk7bS6DhC@unix(/var/run/mysqld/mysqld.sock)/?maxAllowedPacket=0"
  }
}
